<svg width="38" height="38" viewBox="0 0 38 38" fill="none" xmlns="http://www.w3.org/2000/svg">
<rect x="0.5" y="0.5" width="37" height="37" rx="18.5" stroke="white"/>
<path fillRule="evenodd" clipRule="evenodd" d="M25.452 13.7143L30.119 18.3803L30.133 18.3953C30.149 18.4121 30.1644 18.4294 30.179 18.4473L30.119 18.3803C30.2824 18.545 30.3744 18.7674 30.375 18.9993C30.3753 19.1143 30.3528 19.2282 30.3089 19.3344C30.2649 19.4407 30.2004 19.5372 30.119 19.6183L25.452 24.2843C25.3716 24.3691 25.275 24.437 25.168 24.4838C25.0609 24.5307 24.9455 24.5557 24.8287 24.5572C24.7118 24.5588 24.5959 24.5369 24.4876 24.4929C24.3793 24.4489 24.281 24.3836 24.1983 24.301C24.1157 24.2184 24.0505 24.12 24.0065 24.0118C23.9625 23.9035 23.9406 23.7875 23.9421 23.6707C23.9437 23.5538 23.9686 23.4384 24.0155 23.3314C24.0624 23.2243 24.1302 23.1278 24.215 23.0473L27.387 19.8733L8.5 19.8743C8.38509 19.8743 8.27131 19.8517 8.16515 19.8077C8.05899 19.7638 7.96253 19.6993 7.88128 19.6181C7.80003 19.5368 7.73558 19.4404 7.69161 19.3342C7.64763 19.228 7.625 19.1143 7.625 18.9993C7.625 18.8844 7.64763 18.7707 7.69161 18.6645C7.73558 18.5583 7.80003 18.4619 7.88128 18.3806C7.96253 18.2994 8.05899 18.2349 8.16515 18.191C8.27131 18.147 8.38509 18.1243 8.5 18.1243H27.387L24.215 14.9513C24.1302 14.8709 24.0624 14.7744 24.0155 14.6673C23.9686 14.5602 23.9437 14.4449 23.9421 14.328C23.9406 14.2112 23.9625 14.0952 24.0065 13.9869C24.0505 13.8787 24.1157 13.7803 24.1983 13.6977C24.281 13.6151 24.3793 13.5498 24.4876 13.5058C24.5959 13.4618 24.7118 13.4399 24.8287 13.4415C24.9455 13.443 25.0609 13.468 25.168 13.5148C25.275 13.5617 25.3716 13.6295 25.452 13.7143Z" fill="white"/>
</svg>
