<svg width="45" height="32" viewBox="0 0 45 32" fill="none" xmlns="http://www.w3.org/2000/svg">
<rect width="45" height="32" rx="2" fill="white"/>
<g clipPath="url(#clip0_1149_1028)">
<path d="M11.5371 5H20.5059C21.7579 5 22.5365 5.99784 22.2446 7.22612L18.0689 24.7553C17.7743 25.9793 16.5206 26.978 15.2679 26.978H6.29982C5.04966 26.978 4.26919 25.9793 4.56127 24.7553L8.73868 7.22612C9.03076 5.99784 10.2836 5 11.5371 5Z" fill="#E21836"/>
<path d="M19.7591 5H30.0731C31.3248 5 30.7605 5.99784 30.466 7.22612L26.2908 24.7553C25.9981 25.9793 26.0893 26.978 24.835 26.978H14.5211C13.2667 26.978 12.4905 25.9793 12.7851 24.7553L16.9598 7.22612C17.2563 5.99784 18.5066 5 19.7591 5Z" fill="#00447C"/>
<path d="M29.664 5H38.6328C39.8866 5 40.6652 5.99784 40.3709 7.22612L36.1958 24.7553C35.9012 25.9793 34.6468 26.978 33.3931 26.978H24.4285C23.1742 26.978 22.3961 25.9793 22.69 24.7553L26.8656 7.22612C27.1577 5.99784 28.4096 5 29.664 5Z" fill="#007B84"/>
<path d="M13.8801 10.6169C12.9579 10.6261 12.6855 10.6169 12.5985 10.5968C12.565 10.7522 11.9426 13.5594 11.9409 13.5617C11.8069 14.1296 11.7095 14.5345 11.3781 14.7959C11.1903 14.9479 10.9708 15.0213 10.7162 15.0213C10.3073 15.0213 10.0689 14.8226 10.029 14.446L10.0213 14.3167C10.0213 14.3167 10.1459 13.5559 10.1459 13.5517C10.1459 13.5517 10.7991 10.9935 10.9161 10.6554C10.9222 10.6361 10.9239 10.6261 10.9255 10.6169C9.65409 10.6279 9.42866 10.6169 9.4132 10.5968C9.40462 10.6243 9.37312 10.783 9.37312 10.783L8.70613 13.6664L8.6489 13.9108L8.53809 14.7107C8.53809 14.9478 8.58576 15.1416 8.68054 15.3054C8.98443 15.8246 9.85124 15.9024 10.3416 15.9024C10.9733 15.9024 11.566 15.7711 11.9665 15.5314C12.6616 15.1299 12.8436 14.5021 13.0057 13.9441L13.081 13.658C13.081 13.658 13.7539 11.0011 13.8682 10.6554C13.8724 10.6361 13.8742 10.6261 13.8801 10.6169ZM16.1695 12.7602C16.0074 12.7602 15.7111 12.7987 15.4447 12.9263C15.3481 12.9749 15.2567 13.0308 15.1603 13.0867L15.2473 12.7795L15.1996 12.7278C14.635 12.8396 14.5086 12.8546 13.987 12.9263L13.9434 12.9548C13.8828 13.4457 13.829 13.8149 13.6045 14.78C13.5185 15.137 13.4308 15.4935 13.3413 15.8497L13.3652 15.8947C13.8998 15.8672 14.062 15.8672 14.5266 15.8746L14.5641 15.8347C14.6232 15.5391 14.6308 15.4698 14.7616 14.871C14.823 14.5872 14.9511 13.9635 15.0143 13.7414C15.1303 13.6888 15.2449 13.6371 15.3542 13.6371C15.6146 13.6371 15.5828 13.8591 15.5729 13.9477C15.5616 14.0962 15.4668 14.5814 15.3695 14.998L15.3045 15.2669C15.2594 15.4655 15.2098 15.6585 15.1645 15.8554L15.1842 15.8947C15.7109 15.8672 15.8717 15.8672 16.3215 15.8746L16.3744 15.8347C16.4558 15.373 16.4796 15.2494 16.6239 14.5771L16.6964 14.2683C16.8375 13.6637 16.9084 13.3573 16.8016 13.1076C16.6889 12.8277 16.418 12.7602 16.1695 12.7602ZM18.7274 13.3931C18.4472 13.4458 18.2686 13.4807 18.0912 13.5034C17.9152 13.5309 17.7435 13.5561 17.473 13.5928L17.4515 13.6118L17.4318 13.6269C17.4037 13.8241 17.384 13.9944 17.3466 14.1948C17.3149 14.4018 17.2661 14.6372 17.1868 14.9753C17.1254 15.2341 17.0937 15.3243 17.0587 15.4153C17.0245 15.5065 16.987 15.5951 16.9179 15.8496L16.9341 15.8731L16.9476 15.8947C17.2006 15.883 17.3661 15.8746 17.5361 15.8731C17.706 15.8672 17.8821 15.8731 18.1543 15.8745L18.1782 15.8556L18.2038 15.8346C18.2432 15.605 18.2489 15.5432 18.273 15.4313C18.2969 15.3111 18.338 15.1449 18.4388 14.7006C18.4865 14.492 18.5395 14.284 18.589 14.0711C18.6403 13.8591 18.694 13.6504 18.7452 13.4417L18.7376 13.4165L18.7274 13.3931ZM18.7333 12.5398C18.4787 12.393 18.0322 12.4396 17.7316 12.6424C17.4319 12.8412 17.3977 13.1234 17.6514 13.2721C17.9015 13.4149 18.3498 13.3724 18.6478 13.1678C18.9469 12.9647 18.9843 12.6851 18.7333 12.5398ZM20.2721 15.9407C20.7869 15.9407 21.3147 15.8019 21.712 15.3903C22.0176 15.0565 22.1578 14.5597 22.2063 14.3551C22.3642 13.6771 22.2411 13.3606 22.0867 13.1678C21.8519 12.8738 21.4369 12.7795 21.0065 12.7795C20.7477 12.7795 20.1312 12.8045 19.6496 13.2387C19.3036 13.5518 19.1439 13.9768 19.0476 14.3841C18.9502 14.7993 18.8383 15.5465 19.5412 15.8247C19.758 15.9157 20.0706 15.9407 20.2721 15.9407ZM20.2319 14.4152C20.3506 13.9018 20.4908 13.4708 20.8484 13.4708C21.1287 13.4708 21.1491 13.7915 21.0245 14.3066C21.0021 14.421 20.8999 14.8461 20.7615 15.0271C20.6647 15.1607 20.5506 15.2417 20.424 15.2417C20.3864 15.2417 20.1629 15.2417 20.1593 14.917C20.1576 14.7567 20.1911 14.593 20.2319 14.4152ZM23.4931 15.8747L23.5334 15.8347C23.5904 15.5391 23.5999 15.4697 23.7262 14.8711C23.7894 14.5872 23.9202 13.9636 23.9815 13.7414C24.0978 13.6886 24.2105 13.6369 24.3232 13.6369C24.5819 13.6369 24.5504 13.859 24.5401 13.9475C24.5307 14.0963 24.4357 14.5813 24.3367 14.9979L24.2753 15.2667C24.2283 15.4655 24.1771 15.6583 24.1319 15.8555L24.1515 15.8948C24.6803 15.8673 24.8347 15.8673 25.2872 15.8747L25.3419 15.8347C25.4212 15.3727 25.4428 15.2492 25.5914 14.5771L25.6621 14.2682C25.8039 13.6636 25.8756 13.3574 25.7706 13.1077C25.6545 12.8279 25.3821 12.7604 25.137 12.7604C24.9746 12.7604 24.6768 12.7986 24.412 12.9265C24.3173 12.9749 24.2224 13.0307 24.1293 13.0868L24.2105 12.7796L24.1669 12.7276C23.6024 12.8396 23.4736 12.8545 22.9526 12.9265L22.9125 12.9548C22.8494 13.4458 22.798 13.8147 22.5736 14.7801C22.4875 15.137 22.3998 15.4936 22.3105 15.8497L22.3344 15.8948C22.8697 15.8673 23.0295 15.8673 23.4931 15.8747ZM27.3769 15.8947C27.4101 15.736 27.6075 14.7961 27.6092 14.7961C27.6092 14.7961 27.7773 14.1062 27.7877 14.0812C27.7877 14.0812 27.8406 14.0094 27.8934 13.9809H27.9712C28.7055 13.9809 29.5348 13.981 30.1846 13.5135C30.6269 13.1928 30.9292 12.7194 31.0641 12.144C31.0991 12.0029 31.1249 11.8351 31.1249 11.6674C31.1249 11.447 31.0797 11.2289 30.9489 11.0585C30.6175 10.6052 29.9575 10.5968 29.1956 10.5934L28.8202 10.5968C27.8449 10.6086 27.4538 10.6052 27.2931 10.5859C27.2796 10.6554 27.254 10.779 27.254 10.779C27.254 10.779 26.9047 12.362 26.9047 12.3645L26.0293 15.8889C26.8808 15.8789 27.23 15.8789 27.3769 15.8947ZM28.0242 13.0825C28.0242 13.0825 28.3955 11.5026 28.3938 11.5087L28.4059 11.4276L28.4111 11.366L28.5596 11.3808C28.5596 11.3808 29.3256 11.4452 29.3434 11.4468C29.6458 11.5612 29.7704 11.856 29.6834 12.2408C29.604 12.5925 29.3708 12.8881 29.071 13.0308C28.8242 13.1518 28.5219 13.1619 28.2104 13.1619H28.0089L28.0242 13.0825ZM30.3366 14.4445C30.2385 14.8535 30.1257 15.6008 30.825 15.8672C31.0481 15.9599 31.2479 15.9875 31.4508 15.9775C31.6654 15.9662 31.8641 15.861 32.0482 15.7096L31.9983 15.8965L32.0301 15.9363C32.5331 15.9157 32.6892 15.9157 33.2341 15.9198L33.2836 15.883C33.363 15.4255 33.4381 14.9814 33.645 14.1062C33.7457 13.6871 33.8462 13.272 33.9496 12.8546L33.9334 12.8086C33.3708 12.9105 33.2204 12.9324 32.679 13.0073L32.638 13.04C32.6325 13.0827 32.6267 13.1235 32.6215 13.1643C32.5374 13.0314 32.4154 12.9178 32.2272 12.8471C31.9865 12.7545 31.4212 12.8738 30.9353 13.3064C30.5937 13.6153 30.4297 14.0386 30.3366 14.4445ZM31.5185 14.4695C31.639 13.9651 31.7772 13.5386 32.1358 13.5386C32.3625 13.5386 32.4819 13.7431 32.4576 14.0919C32.4368 14.1862 32.4152 14.2804 32.3929 14.3743C32.357 14.5242 32.3182 14.6727 32.2804 14.8215C32.2418 14.9232 32.197 15.0192 32.1479 15.0831C32.0557 15.211 31.8361 15.2902 31.7097 15.2902C31.6739 15.2902 31.4527 15.2902 31.4451 14.9712C31.4432 14.8126 31.4767 14.6491 31.5185 14.4695ZM37.6899 12.8044L37.6463 12.7558C37.0896 12.8661 36.9888 12.8837 36.4773 12.9512L36.4396 12.9879C36.438 12.994 36.4364 13.003 36.4337 13.0114L36.432 13.0032C36.0512 13.8623 36.0623 13.6769 35.7524 14.3532C35.7506 14.3224 35.7506 14.3033 35.7489 14.2705L35.6713 12.8044L35.6226 12.7558C35.0393 12.8661 35.0255 12.8837 34.4869 12.9512L34.4449 12.9879C34.439 13.0055 34.439 13.0248 34.4354 13.0457L34.439 13.0532C34.5063 13.3896 34.4902 13.3145 34.5577 13.8455C34.5892 14.1061 34.6312 14.3682 34.6626 14.6256C34.7157 15.0562 34.7455 15.2682 34.8104 15.9256C34.4467 16.5125 34.3605 16.7347 34.0102 17.2497L34.0127 17.2548L33.7661 17.6363C33.7379 17.6764 33.7124 17.7039 33.6765 17.7157C33.6371 17.7347 33.5859 17.7381 33.5149 17.7381H33.3782L33.1752 18.3987L33.872 18.4104C34.2809 18.4087 34.538 18.2217 34.6763 17.9704L35.1145 17.2363H35.1075L35.1536 17.1846C35.4484 16.5643 37.6899 12.8044 37.6899 12.8044ZM30.3366 21.479H30.0411L31.1351 17.9411H31.4979L31.6132 17.5767L31.6242 17.9819C31.6107 18.2325 31.8122 18.4545 32.3417 18.4178H32.9541L33.1648 17.7366H32.9344C32.802 17.7366 32.7404 17.7039 32.7481 17.6338L32.737 17.2214H31.6031V17.2236C31.2365 17.231 30.1416 17.258 29.92 17.3157C29.6518 17.3831 29.3691 17.5821 29.3691 17.5821L29.4802 17.2172H28.4195L28.1984 17.9411L27.0899 21.533H26.8747L26.6638 22.2094H28.7764L28.7057 22.4349H29.7466L29.8158 22.2094H30.1077L30.3366 21.479ZM29.4698 18.6599C29.3 18.7059 28.984 18.8453 28.984 18.8453L29.2651 17.9411H30.1077L29.9045 18.5999C29.9045 18.5999 29.6441 18.615 29.47 18.6599M29.4861 19.9516C29.4861 19.9516 29.2215 19.9842 29.0473 20.0226C28.8757 20.0734 28.5538 20.2338 28.5538 20.2338L28.8442 19.2929H29.6912L29.4861 19.9516ZM29.0139 21.4872H28.1686L28.4137 20.6932H29.2564L29.0139 21.4872ZM31.0498 19.2929H32.2683L32.0932 19.8474H30.8585L30.6732 20.4535H31.7536L30.9354 21.5798C30.8782 21.6625 30.8269 21.6918 30.7698 21.715C30.7125 21.7435 30.6373 21.7769 30.5504 21.7769H30.2506L30.0447 22.4408H30.8286C31.2361 22.4408 31.4768 22.2596 31.6544 22.0217L32.2155 21.2709L32.3359 22.0332C32.3615 22.176 32.4664 22.2595 32.5374 22.292C32.6159 22.3305 32.697 22.3965 32.8117 22.4064C32.9344 22.4115 33.0232 22.4156 33.0822 22.4156H33.4675L33.6987 21.6726H33.5468C33.4597 21.6726 33.3093 21.6583 33.2839 21.6316C33.2581 21.599 33.2581 21.5491 33.2445 21.4729L33.1222 20.709H32.6218L32.8413 20.4535H34.0736L34.2632 19.8474H33.1223L33.2999 19.2929H34.4374L34.6484 18.6091H31.2573L31.0498 19.2929ZM20.7581 21.6416L21.0425 20.7165H22.2115L22.4249 20.0285H21.2549L21.4335 19.4591H22.5768L22.7887 18.7928H19.928L19.7206 19.4591H20.3706L20.1972 20.0283H19.5455L19.3295 20.7282H19.9792L19.6001 21.9522C19.549 22.1142 19.6241 22.176 19.6718 22.2513C19.7206 22.3246 19.7699 22.3731 19.881 22.4006C19.9957 22.4257 20.0741 22.4406 20.1807 22.4406H21.4985L21.7334 21.6783L21.1492 21.7568C21.0364 21.7568 20.7239 21.7437 20.7581 21.6416ZM20.8921 17.213L20.596 17.7365C20.5327 17.8508 20.4755 17.9218 20.4241 17.9544C20.3789 17.9819 20.2891 17.9936 20.1593 17.9936H20.0048L19.7982 18.6632H20.3115C20.5584 18.6632 20.7479 18.5748 20.8384 18.5306C20.9357 18.4797 20.9613 18.5087 21.0364 18.4377L21.2098 18.2909H22.8127L23.0254 17.5938H21.852L22.0569 17.2129L20.8921 17.213ZM23.2584 21.6551C23.2312 21.6166 23.2508 21.5488 23.2926 21.4077L23.7307 19.99H25.2892C25.5163 19.9868 25.6801 19.9842 25.787 19.9768C25.9015 19.9649 26.0261 19.9249 26.1618 19.8532C26.302 19.7779 26.3737 19.6986 26.4342 19.6076C26.5017 19.5168 26.6102 19.3179 26.7033 19.0114L27.254 17.2172L25.6368 17.2264C25.6368 17.2264 25.1387 17.2981 24.9195 17.3776C24.6983 17.466 24.3822 17.7131 24.3822 17.7131L24.5281 17.2213H23.5291L22.1305 21.7568C22.0808 21.9328 22.0475 22.0607 22.0399 22.1376C22.0374 22.2202 22.1467 22.3022 22.2175 22.3639C22.3012 22.4257 22.4249 22.4156 22.5436 22.4256C22.6685 22.4349 22.846 22.4406 23.0911 22.4406H23.8589L24.0944 21.6625L23.4072 21.726C23.3337 21.726 23.2807 21.6876 23.2584 21.6551ZM24.0133 19.0324H25.6502L25.5461 19.3513C25.5316 19.3587 25.4966 19.3355 25.33 19.3547H23.9125L24.0133 19.0324ZM24.3412 17.9627H25.992L25.8732 18.3468C25.8732 18.3468 25.0953 18.3394 24.9707 18.3618C24.4222 18.4546 24.102 18.7411 24.102 18.7411L24.3412 17.9627ZM25.583 20.4193C25.5693 20.467 25.5478 20.496 25.518 20.5178C25.4847 20.5387 25.4308 20.5462 25.3507 20.5462H25.1175L25.1313 20.1579H24.161L24.1216 22.0566C24.1202 22.1936 24.1337 22.2729 24.2362 22.3364C24.3389 22.4156 24.6547 22.4258 25.0799 22.4258H25.6879L25.9072 21.7149L25.3781 21.7434L25.202 21.7534C25.1781 21.7434 25.155 21.7342 25.1294 21.7093C25.1072 21.6877 25.0695 21.7009 25.0757 21.5639L25.0799 21.0772L25.6349 21.0548C25.9347 21.0548 26.0628 20.9594 26.172 20.8686C26.2762 20.7816 26.3104 20.6816 26.3498 20.5462L26.4429 20.1152H25.6801L25.583 20.4193Z" fill="#FEFEFE"/>
</g>
<defs>
<clipPath id="clip0_1149_1028">
<rect width="36" height="22" fill="white" transform="translate(4.5 5)"/>
</clipPath>
</defs>
</svg>
