<svg width="110" height="110" viewBox="0 0 110 110" fill="none" xmlns="http://www.w3.org/2000/svg">
<circle cx="55" cy="55" r="55" fill="#BBA888"/>
<path d="M66.6875 38.25H82.9375V54.5H78.875V45.2007L60.5938 63.4502L52.4688 55.3252L30.125 77.7007V78.875H82.9375V82.9375H26.0625V26.0625H30.125V71.9243L52.4688 49.6123L60.5938 57.7373L75.9868 42.3125H66.6875V38.25Z" fill="white"/>
</svg>
