<svg width="24" height="28" viewBox="0 0 24 28" fill="none" xmlns="http://www.w3.org/2000/svg">
<path d="M12 24C6.47715 24 2 19.5228 2 14C2 8.47715 6.47715 4 12 4C17.5228 4 22 8.47715 22 14C22 19.5228 17.5228 24 12 24ZM12 22C16.4183 22 20 18.4183 20 14C20 9.58172 16.4183 6 12 6C7.58172 6 4 9.58172 4 14C4 18.4183 7.58172 22 12 22ZM13 14H17V16H11V9H13V14Z" fill="black"/>
</svg>
