<svg width="24" height="25" viewBox="0 0 24 25" fill="none" xmlns="http://www.w3.org/2000/svg">
<path d="M12.9961 20.5H18.9961V16.5H14.9961V14.5H18.9961V6.5H16.9961V11.5L12.9961 9.9V20.5ZM10.9961 20.5V9.9L6.99609 11.5V6.5H4.99609V20.5H10.9961ZM6.99609 4.5V3.5H16.9961V4.5H19.9961C20.2613 4.5 20.5157 4.60536 20.7032 4.79289C20.8907 4.98043 20.9961 5.23478 20.9961 5.5V21.5C20.9961 21.7652 20.8907 22.0196 20.7032 22.2071C20.5157 22.3946 20.2613 22.5 19.9961 22.5H3.99609C3.73088 22.5 3.47652 22.3946 3.28899 22.2071C3.10145 22.0196 2.99609 21.7652 2.99609 21.5V5.5C2.99609 5.23478 3.10145 4.98043 3.28899 4.79289C3.47652 4.60536 3.73088 4.5 3.99609 4.5H6.99609ZM11.9961 8.5L15.4961 5.5H8.49609L11.9961 8.5Z" fill="black"/>
</svg>
